<?xml version="1.0" encoding="utf-8"?>
<!-- Generator: Adobe Illustrator 16.0.4, SVG Export Plug-In . SVG Version: 6.00 Build 0)  -->
<!DOCTYPE svg PUBLIC "-//W3C//DTD SVG 1.1//EN" "http://www.w3.org/Graphics/SVG/1.1/DTD/svg11.dtd">
<svg version="1.1" id="Capa_1" xmlns="http://www.w3.org/2000/svg" xmlns:xlink="http://www.w3.org/1999/xlink" x="0px" y="0px"
	 width="512px" height="512px" viewBox="0 0 512 512" enable-background="new 0 0 512 512" xml:space="preserve">
<path d="M512,198.525l-176.89-25.704L256,12.53l-79.108,160.291L0,198.525l128,124.769L97.784,499.47L256,416.291l158.216,83.179
	l-30.217-176.176L512,198.525z M256,376.749l-111.731,58.74l21.338-124.415l-90.393-88.111l124.92-18.152L256,91.613l55.868,113.198
	l124.918,18.152l-90.395,88.111l21.34,124.415L256,376.749z"/>
</svg>
