<?xml version="1.0" encoding="utf-8"?>
<!-- Generator: Adobe Illustrator 16.0.4, SVG Export Plug-In . SVG Version: 6.00 Build 0)  -->
<!DOCTYPE svg PUBLIC "-//W3C//DTD SVG 1.1//EN" "http://www.w3.org/Graphics/SVG/1.1/DTD/svg11.dtd">
<svg version="1.1" id="Capa_1" xmlns="http://www.w3.org/2000/svg" xmlns:xlink="http://www.w3.org/1999/xlink" x="0px" y="0px"
	 width="512px" height="512px" viewBox="0 0 512 512" enable-background="new 0 0 512 512" xml:space="preserve">
<path d="M352,448h128l32-64v128H320V404.893C385.556,376.65,432,306.312,432,224c0-107.216-78.799-191.133-176-191.133
	c-97.203,0-176,83.916-176,191.133c0,82.312,46.443,152.65,112,180.893V512H0V384l32,64h128v-16.295C66.185,398.475,0,318.004,0,224
	C0,100.288,114.615,0,256,0s256,100.288,256,224c0,94.004-66.185,174.475-160,207.705V448z"/>
</svg>
