<?xml version="1.0" encoding="utf-8"?>
<!-- Generator: Adobe Illustrator 16.0.4, SVG Export Plug-In . SVG Version: 6.00 Build 0)  -->
<!DOCTYPE svg PUBLIC "-//W3C//DTD SVG 1.1//EN" "http://www.w3.org/Graphics/SVG/1.1/DTD/svg11.dtd">
<svg version="1.1" id="Capa_1" xmlns="http://www.w3.org/2000/svg" xmlns:xlink="http://www.w3.org/1999/xlink" x="0px" y="0px"
	 width="512px" height="512px" viewBox="0 0 512 512" enable-background="new 0 0 512 512" xml:space="preserve">
<path d="M256,0C114.615,0,0,114.615,0,256s114.615,256,256,256s256-114.615,256-256S397.385,0,256,0z M160,384
	c-17.673,0-32-14.327-32-32s14.327-32,32-32s32,14.327,32,32S177.673,384,160,384z M248,384c0-66.168-53.832-120-120-120v-48
	c92.636,0,168,75.364,168,168H248z M344,384c0-57.695-22.468-111.938-63.266-152.735C239.938,190.468,185.696,168,128,168v-48
	c70.517,0,136.812,27.461,186.677,77.324C364.539,247.187,392,313.482,392,384H344z"/>
</svg>
