<?xml version="1.0" encoding="utf-8"?>
<!-- Generator: Adobe Illustrator 16.0.4, SVG Export Plug-In . SVG Version: 6.00 Build 0)  -->
<!DOCTYPE svg PUBLIC "-//W3C//DTD SVG 1.1//EN" "http://www.w3.org/Graphics/SVG/1.1/DTD/svg11.dtd">
<svg version="1.1" id="Capa_1" xmlns="http://www.w3.org/2000/svg" xmlns:xlink="http://www.w3.org/1999/xlink" x="0px" y="0px"
	 width="512px" height="512px" viewBox="0 0 512 512" enable-background="new 0 0 512 512" xml:space="preserve">
<path d="M336,96L176,32L0,96v384l176-64l160,64l176-64V32L336,96z M192,72.865l128,51.2v315.069l-128-51.198V72.865z M32,118.414
	l128-46.545v315.9L32,434.312V118.414z M480,393.586l-128,46.546v-315.9l128-46.545V393.586z"/>
</svg>
